<?xml version="1.0" standalone="no"?>
<!DOCTYPE svg PUBLIC "-//W3C//DTD SVG 1.1//EN" "http://www.w3.org/Graphics/SVG/1.1/DTD/svg11.dtd" >
<svg xmlns="http://www.w3.org/2000/svg">
<metadata>Generated by IcoMoon</metadata>
<defs>
<font id="bizagiflat2" horiz-adv-x="512">
<font-face units-per-em="512" ascent="480" descent="-32" />
<missing-glyph horiz-adv-x="512" />
<glyph unicode="&#x20;" d="" horiz-adv-x="256" />
<glyph unicode="&#xe600;" d="M255.744 467.2c-134.4 0-243.2-108.8-243.2-243.2s108.8-243.2 243.2-243.2c134.4 0 243.2 108.8 243.2 243.2s-109.056 243.2-243.2 243.2zM401.664 214.272h-136.192v-135.424h-19.456v135.424h-135.68v19.456h135.424v136.192h19.456v-136.192h136.192v-19.456z" />
<glyph unicode="&#xe601;" d="M255.232 467.712c-134.4 0-243.456-109.056-243.456-243.456s109.056-243.456 243.456-243.456c134.4 0 243.456 109.056 243.456 243.456s-108.8 243.456-243.456 243.456zM255.232 0.256c-123.648 0-224 100.608-224 224 0 123.648 100.608 224 224 224 123.648 0 224-100.608 224-224s-100.352-224-224-224zM264.96 370.432h-19.456v-136.448h-135.68v-19.456h135.68v-135.68h19.456v135.68h136.448v19.456h-136.448z" />
<glyph unicode="&#xe602;" d="M408.064 249.344c0 1.28 0.256 2.56 0.256 3.84 0 69.376-56.32 125.696-125.696 125.696-49.92 0-93.184-29.184-113.408-71.68-8.704 4.352-18.688 6.912-29.184 6.912-32 0-58.624-23.296-64-54.016-37.888-13.056-65.28-49.152-65.28-91.904 0-53.76 43.52-97.28 97.28-97.28h300.544c49.152 0.256 88.832 39.936 88.832 89.088-0.512 49.408-40.192 89.088-89.344 89.344zM408.32 87.296h-300.544c-44.544 0-80.896 36.352-80.896 81.152 0 34.56 22.016 65.28 54.784 76.544l9.216 3.072 1.536 9.472c4.096 23.552 24.064 40.448 47.872 40.448 7.68 0 14.848-1.792 21.76-5.12l14.848-7.424 7.168 14.848c18.176 37.888 56.832 62.464 98.56 62.464 60.416 0 109.568-49.152 109.568-109.568 0-0.256 0-0.768 0-1.024 0-0.768 0-1.536 0-2.56l-0.512-16.64h16.64c40.192 0 72.704-32.768 72.704-72.96-0.256-39.936-32.768-72.448-72.704-72.704zM253.696 143.872c-31.232 0-56.832 25.344-56.832 56.832 0 31.232 25.344 56.832 56.832 56.832v-29.952l61.184 35.072-61.184 35.328v-24.32c-40.192 0-72.96-32.768-72.96-72.96s32.768-72.96 72.96-72.96c40.192 0 72.96 32.768 72.96 72.96h-16.128c0-31.232-25.344-56.832-56.832-56.832z" />
<glyph unicode="&#xe603;" d="M478.72 445.184c-5.888 5.888-13.568 8.96-21.504 8.96-7.68 0-15.616-3.072-21.504-8.96l-250.88-250.88v-43.776h41.984l166.656 166.656 85.248 84.992c11.776 12.032 11.776 31.232 0 43.008zM401.152 296.192l-160-160-5.888-6.144h-70.656v72.448l170.24 170.24h-311.808v-384.256h384v313.6l-4.096-4.352z" />
<glyph unicode="&#xe604;" d="M480.512 442.112c-5.888 5.888-13.568 8.704-21.248 8.704s-15.36-2.816-21.248-8.704l-88.32-88.32v16.64h-320.512v-380.416h380.416v320.512h-18.432l89.088 89.344c12.032 11.52 12.032 30.72 0.256 42.24zM389.632 10.24h-340.48v340.48h297.216l-156.928-156.928v-43.264h41.728l158.464 158.72v-299.008zM466.176 413.952l-243.456-243.712h-13.312v15.104l242.688 242.688c2.56 2.56 5.632 2.816 7.168 2.816s4.608-0.256 7.168-2.816c2.56-2.56 2.816-5.632 2.816-7.168s-0.512-4.352-3.072-6.912z" />
<glyph unicode="&#xe605;" d="M256.512 368.64c-88.832 0-158.208-55.552-243.2-145.92 73.216-77.056 134.656-145.92 243.2-145.92s188.16 87.040 243.2 144.384c-56.32 67.072-136.192 147.456-243.2 147.456zM256.512 125.44c-53.504 0-97.28 43.52-97.28 97.28s43.52 97.28 97.28 97.28 97.28-43.52 97.28-97.28-43.776-97.28-97.28-97.28zM256.512 279.552c-31.232 0-56.832-25.344-56.832-56.832s25.344-56.832 56.832-56.832c31.232 0 56.832 25.344 56.832 56.832s-25.6 56.832-56.832 56.832z" />
<glyph unicode="&#xe606;" d="M255.744 369.92c-88.832 0-158.464-55.808-243.456-146.176 73.472-77.312 134.912-146.176 243.712-146.176s188.672 87.296 243.712 144.64c-56.576 67.072-136.448 147.712-243.968 147.712zM255.744 93.696c-96.512 0-154.88 59.904-221.184 130.048 79.104 82.432 142.080 129.792 221.184 129.792 93.952 0 167.168-67.584 221.696-130.816-53.504-55.808-126.208-129.024-221.696-129.024zM255.744 321.024c-53.76 0-97.536-43.776-97.536-97.536s43.776-97.536 97.536-97.536 97.536 43.776 97.536 97.536-43.776 97.536-97.536 97.536zM255.744 142.592c-44.8 0-81.152 36.352-81.152 81.152s36.352 81.152 81.152 81.152 81.152-36.352 81.152-81.152c0.256-44.8-36.352-81.152-81.152-81.152zM255.744 280.576c-31.232 0-56.832-25.6-56.832-56.832s25.6-56.832 56.832-56.832c31.232 0 56.832 25.6 56.832 56.832s-25.344 56.832-56.832 56.832zM255.744 183.040c-22.272 0-40.704 18.176-40.704 40.704 0 22.272 18.176 40.704 40.704 40.704s40.704-18.176 40.704-40.704c0-22.528-18.176-40.704-40.704-40.704z" />
<glyph unicode="&#xe607;" d="M257.28 313.856c16.128 0 29.184 13.056 29.184 29.184s-13.056 29.184-29.184 29.184c-16.384 0.256-29.44-12.8-29.44-28.928s13.056-29.44 29.44-29.44zM276.992 274.944v19.456h-58.624v-19.456h19.712v-166.144h-19.712v-19.456h78.336v19.456h-19.712zM256 469.248c-134.912 0-244.224-109.312-244.224-243.968 0-134.912 109.312-244.224 244.224-244.224s244.224 109.312 244.224 244.224c0 134.656-109.312 243.968-244.224 243.968zM256 0.512c-123.904 0-224.512 100.864-224.512 224.512s100.608 224.768 224.512 224.768c123.904 0 224.512-100.864 224.512-224.512s-100.608-224.768-224.512-224.768z" />
<glyph unicode="&#xe608;" d="M256.256 467.2c-134.4 0-243.2-108.8-243.2-243.2s108.8-243.2 243.2-243.2c134.4 0 243.2 108.8 243.2 243.2s-108.8 243.2-243.2 243.2zM382.72 214.272h-252.16v19.456h252.16v-19.456z" />
<glyph unicode="&#xe609;" d="M258.048 466.688c-134.144 0-242.944-108.544-242.944-242.688s108.8-242.944 242.944-242.944c134.144 0 242.944 108.8 242.944 242.944-0.256 134.144-108.8 242.688-242.944 242.688zM258.048 0.512c-123.136 0-223.488 100.352-223.488 223.488s100.352 223.488 223.488 223.488c123.136 0 223.488-100.352 223.488-223.488 0-123.392-100.352-223.488-223.488-223.488zM132.352 233.728h251.904v-19.456h-251.904v19.456z" />
<glyph unicode="&#xe60a;" d="M188.928 155.648l86.528-174.080 221.184 483.84-483.84-232.192 176.128-77.568zM194.048 174.592l-134.912 59.392 370.944 178.176-236.032-237.568zM274.688 26.368l-66.816 134.656 237.824 239.616-171.008-374.272z" />
<glyph unicode="&#xe60b;" d="M429.824 400.128h-91.904v18.432c0 20.224-16.384 36.608-36.608 36.608h-91.648c-20.224 0-36.864-16.384-36.864-36.608v-18.432h-91.648v-18.432h18.944l18.432-348.672c0-20.224 16.384-36.608 36.608-36.608h201.728c20.224 0 36.608 16.384 36.608 36.608l17.92 348.672h18.176v18.432zM191.232 418.56c0 10.24 8.192 18.432 18.432 18.432h91.648c10.24 0 18.432-8.192 18.432-18.432v-18.432h-128.512v18.432zM375.296 34.304v-1.024c0-9.984-8.192-18.432-18.432-18.432h-201.728c-9.984 0-18.432 8.192-18.432 18.432v1.024l-18.176 347.648h274.944l-18.176-347.648zM246.272 345.088h18.432v-293.632h-18.432v293.632zM209.92 52.224l-18.688 293.12-18.432-1.28 18.944-292.864zM338.176 344.576l-18.432 1.28-18.432-293.632 18.432-1.024z" />
<glyph unicode="&#xe60c;" d="M257.024 465.408c-133.632 0-241.92-108.288-241.92-241.92s108.288-241.92 241.92-241.92 241.92 108.288 241.92 241.92c0 133.632-108.288 241.92-241.92 241.92zM257.024 445.44c122.368 0 221.696-99.584 221.696-221.696 0-53.76-19.2-103.168-51.2-141.568-22.016 9.216-74.24 27.392-106.496 36.864-2.816 0.768-3.072 1.024-3.072 12.544 0 9.472 3.84 18.944 7.68 27.136 4.096 8.704 8.96 23.552 10.752 36.864 4.864 5.632 11.52 16.896 15.872 38.4 3.84 18.944 2.048 25.6-0.512 32.256-0.256 0.768-0.512 1.28-0.768 2.048-1.024 4.352 0.256 27.392 3.584 45.312 2.304 12.288-0.512 38.144-17.408 59.648-10.752 13.568-30.976 30.208-68.096 32.512h-20.48c-36.608-2.816-57.088-19.456-67.584-33.28-16.896-21.504-19.712-47.616-17.408-59.648 3.328-17.92 4.608-40.704 3.584-45.056-0.256-0.768-0.512-1.536-0.768-2.048-2.56-6.4-4.352-13.312-0.512-32.256 4.352-21.504 11.008-32.512 15.872-38.4 1.792-13.312 6.656-27.904 10.752-36.864 3.072-6.4 4.352-15.104 4.352-27.392 0-11.52-0.512-11.52-3.072-12.544-33.536-9.984-86.528-29.184-106.496-37.888-32.512 38.656-52.224 88.576-52.224 142.848 0 122.624 99.584 222.208 221.952 222.208zM102.144 65.024c22.784 9.216 67.84 25.344 97.792 34.304 17.408 5.376 17.408 19.968 17.408 31.744 0 9.728-0.768 24.064-6.4 36.096-3.84 8.192-8.448 22.528-9.216 33.536-0.256 2.56-1.536 5.12-3.328 6.656-2.816 2.56-8.704 11.776-12.288 30.208-2.816 14.592-1.792 17.92-0.512 20.992 0.512 1.28 1.024 2.56 1.28 4.096 2.304 8.96-0.256 37.888-3.328 54.016-1.28 6.912 0.256 26.88 13.568 43.776 11.776 15.104 29.44 23.296 52.224 24.832h19.2c23.296-1.536 41.216-9.728 52.992-24.832 13.056-16.896 14.592-36.608 13.312-43.776-2.816-16.128-5.632-45.056-3.328-54.016 0.512-1.536 0.768-2.816 1.28-4.096 1.28-3.072 2.56-6.4-0.512-20.992-3.584-18.432-9.472-27.648-12.288-30.208-2.048-1.792-3.072-4.096-3.328-6.656-1.024-11.008-5.376-25.344-9.216-33.536-4.352-9.472-9.728-22.272-9.728-35.584 0-11.776 0-26.368 17.408-31.744 28.416-8.448 73.984-24.064 98.048-33.536-40.192-39.68-95.232-64.256-155.904-64.256-60.672-0.256-115.2 24.064-155.136 62.976z" />
<glyph unicode="&#xe60d;" d="M152 176c0-57.438 46.562-104 104-104s104 46.562 104 104-46.562 104-104 104-104-46.562-104-104zM480 352h-112c-8 32-16 64-48 64h-128c-32 0-40-32-48-64h-112c-17.6 0-32-14.4-32-32v-288c0-17.6 14.4-32 32-32h448c17.6 0 32 14.4 32 32v288c0 17.6-14.4 32-32 32zM256 34c-78.425 0-142 63.574-142 142s63.575 142 142 142c78.426 0 142-63.575 142-142s-63.573-142-142-142zM480 256h-64v32h64v-32z" />
<glyph unicode="&#xe60e;" d="M451.716 380.285l-71.432 71.431c-15.556 15.556-46.284 28.284-68.284 28.284h-240c-22 0-40-18-40-40v-432c0-22 18-40 40-40h368c22 0 40 18 40 40v304c0 22-12.728 52.729-28.284 68.285zM429.089 357.657c1.565-1.565 3.125-3.487 4.64-5.657h-81.729v81.728c2.17-1.515 4.092-3.075 5.657-4.64l71.432-71.431zM448 8c0-4.336-3.664-8-8-8h-368c-4.336 0-8 3.664-8 8v432c0 4.336 3.664 8 8 8h240c2.416 0 5.127-0.305 8-0.852v-127.148h127.148c0.547-2.873 0.852-5.583 0.852-8v-304z" />
<glyph unicode="&#xe60f;" d="M416 352h-96v32l-96 96h-224v-384h192v-128h320v288l-96 96zM416 306.745l50.745-50.745h-50.745v50.745zM224 434.745l50.745-50.745h-50.745v50.745zM32 448h160v-96h96v-224h-256v320zM480 0h-256v96h96v224h64v-96h96v-224z" />
<glyph unicode="&#xe610;" d="M320 352v128h-224l-96-96v-288h192v-128h320v384h-192zM96 434.745v-50.745h-50.745l50.745 50.745zM32 128v224h96v96h160v-96l-96-96v-128h-160zM288 306.745v-50.745h-50.745l50.745 50.745zM480 0h-256v224h96v96h160v-320z" />
<glyph unicode="&#xe611;" d="M512 320l-256 128-256-128 256-128 256 128zM256 405.515l171.029-85.515-171.029-85.515-171.029 85.515 171.029 85.515zM460.722 249.639l51.278-25.639-256-128-256 128 51.278 25.639 204.722-102.361zM460.722 153.639l51.278-25.639-256-128-256 128 51.278 25.639 204.722-102.361z" />
<glyph unicode="&#xe612;" d="M0 320h512l-32-320h-448l-32 320zM464 384l16-32h-448l32 64h176l16-32h208z" />
<glyph unicode="&#xe613;" d="M416 0l96 256h-416l-96-256zM64 288l-64-288v416h144l64-64h208v-64z" />
<glyph unicode="&#xe614;" d="M463.906 480h-144.281c-26.453 0-63.398-15.303-82.102-34.007l-223.495-223.495c-18.704-18.704-18.704-49.312 0-68.016l172.455-172.453c18.704-18.705 49.311-18.705 68.015 0l223.495 223.494c18.704 18.705 34.007 55.651 34.007 82.102v144.281c0 26.452-21.643 48.094-48.094 48.094zM400 320c-26.51 0-48 21.49-48 48s21.49 48 48 48 48-21.49 48-48-21.49-48-48-48z" />
<glyph unicode="&#xe615;" d="M496 448h-112c-26.4 0-63.273-15.273-81.941-33.941l-188.118-188.118c-18.667-18.667-18.667-49.214 0-67.882l140.118-140.117c18.667-18.668 49.214-18.668 67.882 0l188.117 188.117c18.669 18.668 33.942 55.541 33.942 81.941v112c0 26.4-21.6 48-48 48zM432 288c-26.51 0-48 21.49-48 48s21.49 48 48 48 48-21.49 48-48-21.49-48-48-48zM43.313 180.687l171.189-171.189c-18.132-9.58-41.231-6.769-56.443 8.444l-140.118 140.117c-18.667 18.668-18.667 49.215 0 67.882l188.118 188.118c18.668 18.668 55.541 33.941 81.941 33.941l-244.687-244.686c-6.222-6.223-6.222-16.404 0-22.627z" horiz-adv-x="544" />
<glyph unicode="&#xe616;" d="M256 480c-88.366 0-160-71.634-160-160 0-160 160-352 160-352s160 192 160 352c0 88.366-71.635 160-160 160zM256 224c-53.020 0-96 42.98-96 96s42.98 96 96 96 96-42.98 96-96-42.98-96-96-96z" />
<glyph unicode="&#xe617;" d="M256 480c-88.366 0-160-71.634-160-160 0-160 160-352 160-352s160 192 160 352c0 88.366-71.635 160-160 160zM256 222c-54.124 0-98 43.876-98 98s43.876 98 98 98 98-43.876 98-98-43.876-98-98-98zM194 320c0 34.241 27.758 62 62 62s62-27.759 62-62c0-34.241-27.759-62-62-62s-62 27.759-62 62z" />
<glyph unicode="&#xe618;" d="M256 416c-123.712 0-224-100.288-224-224s100.288-224 224-224 224 100.288 224 224-100.288 224-224 224zM256 12c-99.412 0-180 80.589-180 180 0 99.412 80.588 180 180 180 99.411 0 180-80.588 180-180 0-99.411-80.589-180-180-180zM467.392 336.413c8.021 14.026 12.608 30.271 12.608 47.587 0 53.020-42.98 96-96 96-30.909 0-58.401-14.611-75.96-37.298 65.942-13.618 122.603-52.599 159.352-106.289zM203.96 442.702c-17.558 22.687-45.051 37.298-75.96 37.298-53.020 0-96-42.98-96-96 0-17.316 4.587-33.561 12.608-47.587 36.75 53.69 93.411 92.671 159.352 106.289zM224 320h32v-160h-32v160zM256 192h96v-32h-96v32z" />
<glyph unicode="&#xe619;" d="M352 384h-192l-160-192v-128c0-17.673 14.327-32 32-32h448c17.674 0 32 14.327 32 32v128l-160 192zM320 128h-128l-32 32h192l-32-32zM41.655 192l133.333 160h162.024l133.333-160h-428.69zM142.482 288h227.036l-26.667 32h-173.703zM89.149 224h333.703l-26.667 32h-280.37z" />
<glyph unicode="&#xe61a;" d="M256 192l128 128h-96v128h-64v-128h-96zM372.363 244.364l-35.87-35.871 130.040-48.493-210.533-78.509-210.533 78.509 130.040 48.493-35.871 35.871-139.636-52.364v-128l256-96 256 96v128z" />
<glyph unicode="&#xe61b;" d="M224 192h64v128h96l-128 128-128-128h96zM320 264v-49.356l146.533-54.644-210.533-78.509-210.533 78.509 146.533 54.644v49.356l-192-72v-128l256-96 256 96v128z" />
<glyph unicode="&#xe61c;" d="M256 448c-70.692 0-134.688-28.66-181.016-74.989l-74.984 74.989v-192h192l-71.766 71.761c34.748 34.746 82.746 56.239 135.766 56.239 106.034 0 192-85.962 192-192 0-57.348-25.146-108.818-65.009-144l42.333-48c53.151 46.908 86.676 115.538 86.676 192 0 141.385-114.615 256-256 256z" />
<glyph unicode="&#xe61d;" d="M0 192c0-76.462 33.524-145.092 86.675-192l42.333 48c-39.863 35.182-65.008 86.652-65.008 144 0 106.038 85.965 192 192 192 53.021 0 101.019-21.493 135.765-56.239l-71.765-71.761h192v192l-74.985-74.989c-46.327 46.329-110.322 74.989-181.015 74.989-141.385 0-256-114.615-256-256z" />
<glyph unicode="&#xe61e;" d="M380.931-32c56.863 103.016 66.444 260.153-156.931 254.912v-126.912l-192 192 192 192v-124.186c267.481 6.971 297.285-236.107 156.931-387.814z" />
<glyph unicode="&#xe61f;" d="M288 355.814v124.186l192-192-192-192v126.912c-223.375 5.241-213.794-151.896-156.93-254.912-140.356 151.707-110.55 394.785 156.93 387.814z" />
<glyph unicode="&#xe620;" d="M131.070 480c-56.864-103.016-66.445-260.152 156.93-254.912v126.912l192-192-192-192v124.186c-267.48-6.971-297.286 236.107-156.93 387.814z" />
<glyph unicode="&#xe621;" d="M224 92.186v-124.186l-192 192 192 192v-126.912c223.375-5.24 213.794 151.896 156.931 254.912 140.355-151.707 110.55-394.785-156.931-387.814z" />
<glyph unicode="&#xe622;" d="M256 448c141.385 0 256-93.125 256-208s-114.615-208-256-208c-13.578 0-26.905 0.867-39.912 2.522-54.989-54.989-120.625-64.85-184.088-66.298v13.458c34.268 16.789 64 47.37 64 82.318 0 4.877-0.379 9.665-1.082 14.348-57.898 38.132-94.918 96.377-94.918 161.652 0 114.875 114.615 208 256 208z" />
<glyph unicode="&#xe623;" d="M256 384c-27.466 0-53.994-4.331-78.847-12.871-23.356-8.027-44.153-19.372-61.814-33.722-33.107-26.899-51.339-61.492-51.339-97.407 0-20.149 5.594-39.689 16.626-58.076 11.376-18.96 28.491-36.293 49.494-50.126 15.178-9.996 25.39-25.974 28.088-43.947 0.9-5.992 1.464-12.044 1.685-18.062 3.735 3.097 7.375 6.423 10.94 9.988 12.077 12.076 28.39 18.745 45.251 18.745 2.684 0 5.381-0.168 8.078-0.512 10.487-1.333 21.199-2.010 31.838-2.010 27.467 0 53.994 4.33 78.847 12.871 23.356 8.027 44.153 19.372 61.814 33.722 33.107 26.898 51.339 61.492 51.339 97.407s-18.232 70.508-51.339 97.407c-17.661 14.349-38.458 25.695-61.814 33.722-24.853 8.54-51.38 12.871-78.847 12.871zM256 448v0c141.385 0 256-93.125 256-208s-114.615-208-256-208c-13.578 0-26.905 0.867-39.912 2.522-54.989-54.989-120.625-64.85-184.088-66.298v13.458c34.268 16.789 64 47.37 64 82.318 0 4.877-0.379 9.665-1.082 14.348-57.898 38.132-94.918 96.377-94.918 161.652 0 114.875 114.615 208 256 208z" />
<glyph unicode="&#xe624;" d="M544 29.417c0-22.75 13.014-42.454 32-52.092v-7.969c-5.313-0.727-10.736-1.112-16.25-1.112-34.004 0-64.674 14.264-86.361 37.132-13.111-3.491-27.001-5.376-41.389-5.376-79.529 0-144 57.308-144 128s64.471 128 144 128c79.529 0 144-57.308 144-128 0-27.674-9.882-53.296-26.678-74.233-3.412-7.412-5.322-15.656-5.322-24.35zM115.339 369.407c-33.107-26.899-51.339-61.492-51.339-97.407 0-20.149 5.594-39.689 16.626-58.075 11.376-18.96 28.491-36.293 49.494-50.126 15.178-9.996 25.39-25.974 28.088-43.947 0.9-5.992 1.464-12.044 1.685-18.062 3.735 3.097 7.375 6.423 10.94 9.988 12.077 12.076 28.39 18.745 45.251 18.745 2.684 0 5.381-0.168 8.078-0.512 10.474-1.331 21.172-2.008 31.797-2.010v-64c-13.564 0.001-26.877 0.869-39.871 2.521-54.989-54.989-120.625-64.85-184.088-66.298v13.458c34.268 16.789 64 47.37 64 82.318 0 4.877-0.379 9.665-1.082 14.348-57.898 38.132-94.918 96.377-94.918 161.652 0 114.875 114.615 208 256 208 139.229 0 252.496-90.307 255.918-202.76-20.548 9.158-42.92 14.711-66.131 16.289-5.765 28.034-22.701 54.408-49.126 75.878-17.661 14.349-38.458 25.695-61.814 33.722-24.853 8.54-51.38 12.871-78.847 12.871s-53.994-4.331-78.847-12.871c-23.356-8.027-44.153-19.372-61.814-33.722z" horiz-adv-x="576" />
<glyph unicode="&#xe625;" d="M424-32h-336c-13.255 0-24 10.745-24 24 0 34.431 14.534 76.102 38.879 111.471 20.346 29.559 45.342 51.81 72.339 64.805-11.899 10.822-22.147 24.013-30.254 39.061-13 24.131-19.873 52.024-19.873 80.664 0 39.803 13.102 77.411 36.893 105.895 24.832 29.73 58.221 46.104 94.016 46.104s69.184-16.374 94.017-46.105c23.79-28.484 36.893-66.091 36.893-105.895 0-28.64-6.872-56.533-19.872-80.664-8.107-15.048-18.355-28.239-30.255-39.061 26.997-12.995 51.993-35.246 72.339-64.805 24.344-35.368 38.878-77.039 38.878-111.47 0-13.255-10.745-24-24-24zM115.037 16h281.926c-4.613 19.67-14.26 41.192-27.381 60.255-20.727 30.113-46.588 49.811-72.819 55.463-11.053 2.382-18.944 12.155-18.944 23.462v17.146c0 8.63 4.633 16.595 12.135 20.861 29.739 16.916 48.956 54.133 48.956 94.813 0 57.346-37.192 104-82.909 104s-82.909-46.654-82.909-104c0-40.68 19.217-77.896 48.957-94.813 7.501-4.267 12.134-12.231 12.134-20.861v-17.146c0-11.307-7.892-21.080-18.944-23.462-26.231-5.652-52.092-25.35-72.82-55.463-13.123-19.063-22.768-40.585-27.382-60.255z" />
<glyph unicode="&#xe626;" d="M488-32h-336c-13.255 0-24 10.745-24 24 0 34.431 14.534 76.102 38.879 111.471 20.346 29.559 45.342 51.81 72.339 64.805-11.899 10.822-22.147 24.013-30.254 39.061-13 24.131-19.873 52.024-19.873 80.664 0 39.803 13.102 77.411 36.893 105.895 24.832 29.73 58.221 46.104 94.016 46.104s69.184-16.374 94.017-46.105c23.79-28.484 36.893-66.091 36.893-105.895 0-28.64-6.872-56.533-19.872-80.664-8.107-15.048-18.355-28.239-30.255-39.061 26.997-12.995 51.993-35.246 72.339-64.805 24.344-35.368 38.878-77.039 38.878-111.47 0-13.255-10.745-24-24-24zM179.037 16h281.926c-4.613 19.67-14.26 41.192-27.381 60.255-20.727 30.113-46.588 49.811-72.819 55.463-11.053 2.382-18.944 12.155-18.944 23.462v17.146c0 8.63 4.633 16.595 12.135 20.861 29.739 16.916 48.956 54.133 48.956 94.813 0 57.346-37.192 104-82.909 104s-82.909-46.654-82.909-104c0-40.68 19.217-77.896 48.957-94.813 7.501-4.267 12.134-12.231 12.134-20.861v-17.146c0-11.307-7.892-21.080-18.944-23.462-26.231-5.652-52.092-25.35-72.82-55.463-13.123-19.063-22.768-40.585-27.382-60.255zM98.557 48h-47.52c4.614 19.67 14.259 41.192 27.38 60.255 20.728 30.113 46.589 49.811 72.82 55.463 11.053 2.382 18.944 12.155 18.944 23.462v17.146c0 8.63-4.633 16.595-12.134 20.861-29.74 16.917-48.957 54.133-48.957 94.813 0 57.346 37.192 104 82.909 104 3.127 0 6.213-0.226 9.251-0.651 13.179 14.667 28.117 26.587 44.321 35.502-16.596 8.616-34.75 13.149-53.571 13.149-35.795 0-69.184-16.374-94.017-46.105-23.79-28.484-36.892-66.092-36.892-105.895 0-28.64 6.872-56.533 19.873-80.664 8.107-15.048 18.355-28.238 30.254-39.061-26.997-12.995-51.993-35.246-72.339-64.805-24.345-35.368-38.879-77.039-38.879-111.47 0-13.255 10.745-24 24-24h66.193c0.738 15.513 3.599 31.706 8.364 48z" />
<glyph unicode="&#xe627;" d="M224 192v224c-123.712 0-224-100.288-224-224s100.288-224 224-224 224 100.288 224 224c0 36.017-8.514 70.042-23.618 100.191l-200.382-100.191zM456.382 356.191c-36.776 73.408-112.687 123.809-200.382 123.809v-224l200.382 100.191z" />
<glyph unicode="&#xe628;" d="M64 32h448v-64h-512v512h64zM144 64c-26.51 0-48 21.49-48 48s21.49 48 48 48c1.414 0 2.811-0.074 4.194-0.193l51.596 85.993c-4.92 7.535-7.79 16.531-7.79 26.201 0 26.51 21.49 48 48 48s48-21.49 48-48c0-9.671-2.87-18.666-7.79-26.201l51.596-85.993c1.383 0.119 2.78 0.193 4.194 0.193 1.068 0 2.124-0.047 3.175-0.115l85.178 149.061c-5.268 7.704-8.353 17.018-8.353 27.055 0 26.51 21.49 48 48 48s48-21.49 48-48c0-26.51-21.49-48-48-48-1.070 0-2.124 0.047-3.175 0.116l-85.178-149.062c5.268-7.703 8.353-17.018 8.353-27.055 0-26.51-21.49-48-48-48s-48 21.49-48 48c0 9.67 2.87 18.666 7.789 26.201l-51.595 85.992c-1.383-0.119-2.78-0.193-4.194-0.193s-2.811 0.073-4.194 0.193l-51.596-85.993c4.92-7.534 7.79-16.53 7.79-26.2 0-26.51-21.49-48-48-48z" />
<glyph unicode="&#xe629;" d="M0 64h512v-64h-512zM64 192h64v-96h-64zM160 320h64v-224h-64zM256 224h64v-128h-64zM352 416h64v-320h-64z" />
<glyph unicode="&#xe62a;" d="M476.698 442.679l-2.014 2.021c-47.074 47.067-124.097 47.067-171.163 0l-109.053-109.068c-47.067-47.066-47.067-124.088 0-171.155l2.013-2.013c3.916-3.924 8.073-7.462 12.368-10.729l39.924 39.925c-4.651 2.747-9.063 6.036-13.058 10.030l-2.021 2.021c-25.557 25.549-25.557 67.136 0 92.695l109.064 109.056c25.558 25.559 67.137 25.559 92.693 0l2.021-2.012c25.55-25.558 25.55-67.146 0-92.695l-49.343-49.343c8.566-21.154 12.624-43.7 12.269-66.193l76.302 76.302c47.067 47.068 47.067 124.089-0.002 171.158zM315.521 285.533c-3.916 3.916-8.073 7.461-12.368 10.72l-39.924-39.916c4.652-2.748 9.063-6.037 13.058-10.031l2.021-2.020c25.558-25.558 25.558-67.136 0-92.694l-109.065-109.067c-25.559-25.551-67.138-25.551-92.694 0l-2.021 2.021c-25.549 25.56-25.549 67.138 0 92.694l49.344 49.343c-8.567 21.153-12.623 43.701-12.269 66.193l-76.301-76.299c-47.068-47.066-47.068-124.089 0-171.162l2.013-2.016c47.076-47.064 124.096-47.064 171.164 0l109.055 109.059c47.067 47.066 47.067 124.097 0 171.163l-2.013 2.012z" />
<glyph unicode="&#xe62b;" d="M348.916 316.476l-32.476 32.461-162.405-162.371c-26.907-26.896-26.907-70.524 0-97.422 26.902-26.896 70.53-26.896 97.437 0l194.886 194.854c44.857 44.831 44.857 117.531 0 162.363-44.833 44.852-117.556 44.852-162.391 0l-204.615-204.589c-0.145-0.152-0.306-0.288-0.438-0.423-62.551-62.548-62.551-163.928 0-226.453 62.527-62.528 163.934-62.528 226.494 0 0.137 0.137 0.258 0.284 0.41 0.438l0.016-0.017 139.666 139.646-32.493 32.46-139.665-139.631c-0.148-0.134-0.282-0.285-0.423-0.422-44.537-44.529-116.99-44.529-161.538 0-44.531 44.521-44.531 116.961 0 161.489 0.152 0.152 0.302 0.291 0.444 0.423l-0.023 0.030 204.64 204.583c26.856 26.869 70.572 26.869 97.443 0 26.856-26.867 26.856-70.574 0-97.42l-194.886-194.85c-8.968-8.961-23.527-8.961-32.486 0-8.947 8.943-8.947 23.516 0 32.46l162.403 162.391z" />
<glyph unicode="&#xe62c;" d="M497.914-17.913c-18.783-18.782-49.225-18.782-68.008 0l-84.863 84.863c-34.888-22.382-76.13-35.717-120.659-35.717-123.915 0-224.384 100.454-224.384 224.384s100.469 224.383 224.384 224.383c123.931 0 224.384-100.452 224.384-224.383 0-44.514-13.352-85.771-35.718-120.676l84.864-84.863c18.781-18.782 18.781-49.209 0-67.991zM224.384 415.891c-88.511 0-160.274-71.747-160.274-160.273s71.763-160.274 160.274-160.274c88.526 0 160.274 71.748 160.274 160.274s-71.748 160.273-160.274 160.273z" />
<glyph unicode="&#xe62d;" d="M256-32c-141.375 0-256 114.609-256 256s114.625 256 256 256c141.391 0 256-114.609 256-256s-114.609-256-256-256zM256 416c-106.031 0-192-85.969-192-192s85.969-192 192-192c106.047 0 192 85.969 192 192s-85.953 192-192 192zM288 96h-64v96h-96v64h96v96h64v-96h96v-64h-96v-96z" />
<glyph unicode="&#xe62e;" d="M256 480c-141.375 0-256-114.625-256-256 0-141.391 114.625-256 256-256 141.391 0 256 114.609 256 256 0 141.375-114.609 256-256 256zM256 32c-106.031 0-192 85.969-192 192s85.969 192 192 192c106.047 0 192-85.969 192-192s-85.953-192-192-192zM128 192h256v64h-256v-64z" />
<glyph unicode="&#xe62f;" d="M74.966 42.987c-99.97 99.97-99.97 262.066 0 362.037 100.002 99.97 262.067 99.97 362.068 0 99.97-99.971 99.97-262.067 0-362.037-100.001-99.985-262.066-99.985-362.068 0zM391.783 359.773c-75.001 74.985-196.565 74.985-271.535 0-75.001-74.985-75.001-196.55 0-271.535 74.97-74.986 196.534-74.986 271.535 0 74.971 74.986 74.971 196.55 0 271.535zM188.124 110.863l-45.251 45.266 67.876 67.877-67.876 67.876 45.251 45.267 67.876-67.892 67.877 67.892 45.25-45.267-67.876-67.876 67.876-67.877-45.25-45.266-67.877 67.892-67.876-67.892z" />
<glyph unicode="&#xe630;" d="M256-32c-141.375 0-256 114.625-256 256 0 141.391 114.625 256 256 256s256-114.609 256-256c0-141.375-114.625-256-256-256zM64 224c0-41.312 13.312-79.312 35.531-110.656l267.125 267.14c-31.312 22.188-69.344 35.516-110.656 35.516-106.031 0-192-85.969-192-192zM412.469 334.656l-267.125-267.156c31.312-22.188 69.344-35.5 110.656-35.5 106.031 0 192 85.969 192 192 0 41.312-13.312 79.328-35.531 110.656z" />
<glyph unicode="&#xe631;" d="M256 384l-192 96h-32c-17.688 0-32-14.328-32-32v-352c0-17.688 14.312-32 32-32l224-96 224 96c17.688 0 32 14.312 32 32v352c0 17.672-14.312 32-32 32h-32zM224 48l-160 80v256l160-53.328v-282.672zM448 128l-160-80v282.672l160 53.328v-256z" />
<glyph unicode="&#xe632;" d="M288 256h64v-160h-64zM480 384h-128v64c0 17.688-14.312 32-32 32h-128c-17.688 0-32-14.312-32-32v-64h-128c-17.688 0-32-14.312-32-32v-32h32v-320c0-17.688 14.312-32 32-32h384c17.688 0 32 14.312 32 32v320h32v32c0 17.688-14.312 32-32 32zM224 416h64v-32h-64v32zM416 32h-320v288h320v-288zM160 256h64v-160h-64z" />
<glyph unicode="&#xe633;" d="M192 192h-160c-17.688 0-32-14.312-32-32v-160c0-17.688 14.312-32 32-32h160c17.688 0 32 14.312 32 32v160c0 17.688-14.312 32-32 32zM160 32h-96v96h96v-96zM192 480h-160c-17.688 0-32-14.312-32-32v-160c0-17.688 14.312-32 32-32h160c17.688 0 32 14.312 32 32v160c0 17.688-14.312 32-32 32zM160 320h-96v96h96v-96zM480 192h-160c-17.688 0-32-14.312-32-32v-160c0-17.688 14.312-32 32-32h160c17.688 0 32 14.312 32 32v160c0 17.688-14.312 32-32 32zM448 32h-96v96h96v-96zM480 480h-160c-17.688 0-32-14.312-32-32v-160c0-17.688 14.312-32 32-32h160c17.688 0 32 14.312 32 32v160c0 17.688-14.312 32-32 32zM448 320h-96v96h96v-96z" />
<glyph unicode="&#xe634;" d="M480-32h-448c-17.688 0-32 14.312-32 32v448c0 17.688 14.312 32 32 32h448c17.688 0 32-14.312 32-32v-448c0-17.688-14.312-32-32-32zM448 416h-384v-384h384v384zM224 256h-96v96h96v-96zM224 96h-96v96h96v-96zM384 256h-96v96h96v-96zM384 96h-96v96h96v-96z" />
<glyph unicode="&#xe635;" d="M480 480h-256c-17.688 0-32-14.312-32-32v-256c0-17.688 14.312-32 32-32h256c17.688 0 32 14.312 32 32v256c0 17.688-14.312 32-32 32zM448 224h-192v192h192v-192zM256 32h-192v192h64v64h-96c-17.688 0-32-14.312-32-32v-256c0-17.688 14.312-32 32-32h256c17.688 0 32 14.312 32 32v96h-64v-64z" />
<glyph unicode="&#xe636;" d="M288-28.781v-3.219h-64v3.219c-108.438 15.656-192 108.031-192 220.781v128c0 88.375 71.625 160 160 160 77.406 0 145.156-54.969 160-128v0-160c0-53.031-43-96-96-96s-96 42.969-96 96v128c0 17.688 14.312 32 32 32s32-14.312 32-32v-128c0-17.688 14.312-32 32-32s32 14.312 32 32v160c0 0-20.656 64-96 64-53 0-96-42.969-96-96v-128c0-88.375 71.625-160 160-160v0c88.375 0 160 71.625 160 160v256c0 17.688 14.312 32 32 32s32-14.312 32-32v-256c0-112.75-83.562-205.125-192-220.781z" />
<glyph unicode="&#xe637;" d="M256 480c-106.031 0-192-85.969-192-192s192-320 192-320 192 213.969 192 320-85.969 192-192 192zM256 160c-70.688 0-128 57.312-128 128s57.312 128 128 128 128-57.312 128-128-57.312-128-128-128z" />
<glyph unicode="&#xe638;" d="M256 480c-106.031 0-192-85.969-192-192s192-320 192-320 192 213.969 192 320-85.969 192-192 192zM256 160c-70.688 0-128 57.312-128 128s57.312 128 128 128 128-57.312 128-128-57.312-128-128-128zM256 352c-35.344 0-64-28.656-64-64s28.656-64 64-64 64 28.656 64 64-28.656 64-64 64z" />
<glyph unicode="&#xe639;" d="M400 352c-5.594 0-10.844-1.125-16.312-1.656-36.813 58.5-101.469 97.656-175.688 97.656-114.875 0-208-93.125-208-208v-32c0-109.406 84.75-199.719 192-208h224c89.594 8.188 160 84.281 160 176 0 97.188-78.812 176-176 176zM416 64h-224c-17.906 2-34.656 8.75-49.969 16.688-0.312 0.156-0.594 0.344-0.906 0.5-7.156 3.781-13.938 8.031-20.312 12.938-0.938 0.688-1.781 1.469-2.688 2.188-5.625 4.531-11 9.312-15.906 14.656-1.562 1.656-2.875 3.531-4.344 5.281-3.969 4.749-7.875 9.561-11.219 14.811-1.969 3.062-3.469 6.375-5.188 9.562-2.406 4.5-4.938 8.844-6.844 13.594-2 4.844-3.25 10-4.688 15.094-1.031 3.594-2.375 7-3.125 10.719-1.78 9.031-2.811 18.375-2.811 27.969v32c0 79.531 64.469 144 144 144 10.75 0 21.156-1.375 31.25-3.625 2.062-0.469 4-1.312 6.031-1.875 8.188-2.188 16.125-4.938 23.656-8.469 1.281-0.625 2.469-1.375 3.75-2.031 8.281-4.188 16.031-9.125 23.312-14.781 0.344-0.281 0.688-0.562 1.062-0.844 24.531-19.5 42.562-46.531 50.312-77.938 15.689 8.501 33.502 13.563 52.627 13.563 61.844 0 112-50.156 112-112 0-56.375-41.781-104.188-96-112z" horiz-adv-x="576" />
<glyph unicode="&#xe63a;" d="M409.6 435.2h-205.312c-28.16 0-50.688-22.528-50.688-50.688v-205.312c0-28.16 23.040-51.2 51.2-51.2h204.8c28.16 0 51.2 23.040 51.2 51.2v204.8c0 28.16-23.040 51.2-51.2 51.2zM409.6 179.2h-204.8v204.8h204.8v-204.8zM102.4 230.4h-51.2v-153.6c0-28.16 23.040-51.2 51.2-51.2h153.6v51.2h-153.6v153.6z" />
<glyph unicode="&#xe63b;" d="M460.8 384h-230.4v-128h256v102.4c0 14.131-11.443 25.6-25.6 25.6zM25.6 102.4c0-14.157 6.349-25.6 20.48-25.6h133.12v128h-153.6v-102.4zM230.4 76.8h230.4c14.157 0 25.6 11.443 25.6 25.6v102.4h-256v-128zM25.6 358.4v-102.4h153.6v128h-133.12c-14.131 0-20.48-11.469-20.48-25.6z" />
<glyph unicode="&#xe63c;" d="M404.505 281.549h-46.106v35.84c0 74.163-34.151 117.76-102.4 117.76-68.224 0-102.4-43.597-102.4-117.76v-35.84h-51.2c-14.131 0-25.6-16.563-25.6-30.72v-199.68c0-14.080 10.983-29.159 24.371-33.459l30.617-9.907c13.389-4.327 35.865-7.859 49.971-7.859h148.48c14.080 0 36.582 3.533 49.971 7.859l30.618 9.907c13.414 4.301 24.371 19.379 24.371 33.459v199.68c0 14.157-16.563 30.72-30.695 30.72zM204.8 327.629c0 36.992 20.429 56.32 51.2 56.32 30.797 0 51.2-19.328 51.2-56.32v-46.080h-102.4v46.080z" />
<glyph unicode="&#xe63d;" d="M404.48 281.6h-46.080v61.44c0 74.163-34.176 117.76-102.4 117.76-68.25 0-102.4-43.597-102.4-117.76v-10.24h51.2v20.48c0 36.992 20.403 56.32 51.2 56.32 30.771 0 51.2-19.328 51.2-56.32v-71.68h-204.8c-14.157 0-25.6-16.563-25.6-30.72v-199.68c0-14.080 10.983-29.133 24.371-33.459l30.617-9.907c13.415-4.301 35.891-7.834 49.971-7.834h148.48c14.106 0 36.582 3.533 49.971 7.859l30.618 9.907c13.389 4.301 24.371 19.353 24.371 33.433v199.68c0 14.157-16.563 30.72-30.72 30.72z" />
<glyph unicode="&#xe63e;" d="M282.137 51.2h-205.85v358.4h205.824v-76.8h50.688v76.8c0 28.16-23.014 51.2-51.2 51.2h-204.8c-28.16 0-51.2-23.040-51.2-51.2v-358.4c0-28.16 23.040-51.2 51.2-51.2h204.8c28.185 0 51.2 23.040 51.2 51.2v51.2h-50.663v-51.2zM486.4 217.6l-101.863 99.84v-61.44h-230.4v-76.8h230.4v-61.44l101.863 99.84z" />
<glyph unicode="&#xe63f;" d="M141.209 122.265c-57.907 62.285-56.883 159.872 3.251 220.442 24.627 24.781 55.398 39.577 87.398 44.442l-1.767 53.171c-44.903-5.453-88.371-25.497-122.803-60.16-80.615-81.203-81.561-212.224-3.149-295.219l-44.569-44.877 141.056-7.705-0.384 149.351-59.034-59.443zM311.347 428.416l0.384-149.351 59.059 59.469c57.907-62.285 56.909-159.872-3.251-220.442-24.627-24.807-55.399-39.577-87.424-44.442l1.767-53.145c44.928 5.453 88.397 25.498 122.829 60.185 80.589 81.178 81.587 212.224 3.123 295.194l44.57 44.877-141.056 7.655z" />
<glyph unicode="&#xe640;" d="M224.589 440.32c113.817 0 206.362-91.187 209.127-204.672h62.925l-94.183-104.986-94.183 104.986h73.113c-2.739 84.506-71.859 152.192-156.8 152.192-86.681 0-156.928-70.477-156.928-157.44s70.246-157.44 156.928-157.44c34.765 0 66.867 11.366 92.877 30.541l35.968-38.502c-35.507-27.878-80.231-44.519-128.845-44.519-115.558 0-209.229 93.978-209.229 209.92s93.671 209.92 209.229 209.92z" />
<glyph unicode="&#xe641;" d="M287.385 440.32c-113.792 0-206.336-91.187-209.126-204.672h-62.899l94.183-104.96 94.157 104.96h-73.113c2.765 84.506 71.885 152.192 156.8 152.192 86.707 0 156.954-70.477 156.954-157.44s-70.246-157.44-156.953-157.44c-34.739 0-66.841 11.366-92.851 30.541l-35.993-38.502c35.507-27.878 80.231-44.519 128.845-44.519 115.584 0 209.28 93.978 209.28 209.92-0.026 115.942-93.721 209.92-209.28 209.92z" />
<glyph unicode="&#xe642;" d="M287.411 440.32c-113.817 0-206.362-91.187-209.126-204.672h-62.925l94.183-104.986 94.157 104.986h-73.113c2.765 84.506 71.885 152.192 156.826 152.192 86.682 0 156.928-70.477 156.928-157.44s-70.246-157.44-156.928-157.44c-34.765 0-66.867 11.366-92.877 30.541l-35.993-38.502c35.533-27.878 80.256-44.519 128.87-44.519 115.558 0 209.255 93.978 209.255 209.92-0.026 115.942-93.721 209.92-209.255 209.92zM268.8 343.040v-120.064l76.928-76.928 25.344 25.344-66.432 66.432v105.216h-35.84z" />
<glyph unicode="&#xe643;" d="M184.909 208.128h143.36v46.080h-143.36v-46.080zM384 460.8h-256c-28.16 0-51.2-23.040-51.2-51.2v-358.4c0-28.16 23.040-51.2 51.2-51.2h256c28.16 0 51.2 23.040 51.2 51.2v358.4c0 28.16-23.040 51.2-51.2 51.2zM384 51.2h-256v358.4h256v-358.4zM327.68 354.073h-143.36v-44.8h143.36v44.8zM327.68 153.088h-143.36v-44.8h143.36v44.8z" />
<glyph unicode="&#xe644;" d="M384 460.8h-256c-28.16 0-51.2-23.040-51.2-51.2v-358.4c0-28.16 23.040-51.2 51.2-51.2h256c28.16 0 51.2 23.040 51.2 51.2v358.4c0 28.16-23.040 51.2-51.2 51.2zM148.787 354.073h214.4v-44.8h-214.4v44.8zM363.187 108.288h-214.4v44.8h214.4v-44.8zM363.801 208.128h-214.4v46.080h214.4v-46.080z" />
<glyph unicode="&#xe645;" d="M496.589 296.601l-190.592 51.047-33.357 124.467c-2.791 10.394-13.926 16.461-24.883 13.517l-232.32-62.233c-10.957-2.918-17.561-13.747-14.797-24.141l82.662-308.531c2.79-10.394 13.927-16.461 24.858-13.517l92.493 24.781-12.621-47.053c-2.791-10.419 3.815-21.223 14.771-24.166l207.616-55.629c10.957-2.919 22.093 3.123 24.883 13.517l76.058 283.802c2.791 10.393-3.815 21.222-14.771 24.141zM41.831 393.421l200.423 53.658 74.215-276.941-200.448-53.657-74.189 276.941zM401.382 13.696l-174.464 47.719 13.721 51.277 99.865 26.752c10.957 2.944 17.587 13.747 14.797 24.166l-38.605 144.051 152.217-41.753-67.533-252.211z" />
<glyph unicode="&#xe646;" d="M438.4 302.771l-52.377 144.281c-3.865 10.649-15.232 16.281-25.319 12.595l-348.083-127.053c-10.112-3.661-15.207-15.283-11.341-25.933l55.219-152.115v81.536c0 36.787 29.389 66.688 65.561 66.688h91.981l109.696 77.005 63.488-77.005h51.175zM492.493 256.589h-370.432c-10.752 0-19.507-9.191-19.507-20.531v-241.178c0-11.315 8.73-20.531 19.507-20.531h370.432c10.777 0 19.507 9.19 19.507 20.531v241.203c0 11.315-8.729 20.505-19.507 20.505zM464.231 25.677h-307.072v44.007l47.232 109.952 70.886-87.987 66.483 68.147 85.478 30.848 36.992-82.483v-82.483z" />
<glyph unicode="&#xe647;" d="M292.787 370.791c-10.701-10.445-115.251-120.218-115.251-120.218-5.709-5.581-8.55-12.877-8.55-20.173s2.841-14.592 8.55-20.173c0 0 104.551-109.773 115.251-120.192 10.701-10.445 29.952-11.161 41.37 0 11.392 11.136 12.288 26.675-0.026 40.32l-95.923 100.045 95.923 100.045c12.313 13.67 11.418 29.209 0.026 40.345-11.443 11.136-30.695 10.445-41.37 0z" />
<glyph unicode="&#xe648;" d="M396.365 267.187c-10.419-10.701-120.192-115.277-120.192-115.277-5.581-5.709-12.877-8.55-20.173-8.55-7.322 0-14.618 2.841-20.173 8.55 0 0-109.773 104.576-120.218 115.277-10.419 10.701-11.136 29.926 0 41.37 11.162 11.417 26.701 12.313 40.345 0l100.045-95.949 100.019 95.923c13.671 12.314 29.235 11.418 40.346 0 11.161-11.417 10.471-30.669 0-41.344z" />
<glyph unicode="&#xe649;" d="M396.365 193.613c-10.419 10.701-120.192 115.251-120.192 115.251-5.581 5.709-12.877 8.576-20.173 8.576-7.322 0-14.618-2.867-20.173-8.576 0 0-109.773-104.551-120.218-115.251-10.419-10.701-11.136-29.952 0-41.37 11.162-11.392 26.701-12.313 40.345 0l100.045 95.923 100.019-95.923c13.671-12.313 29.235-11.392 40.346 0 11.161 11.443 10.471 30.695 0 41.37z" />
<glyph unicode="&#xe64a;" d="M219.213 370.791c10.701-10.445 115.251-120.218 115.251-120.218 5.735-5.581 8.576-12.877 8.576-20.173s-2.841-14.592-8.576-20.173c0 0-104.55-109.773-115.251-120.192-10.701-10.445-29.927-11.161-41.369 0-11.417 11.136-12.314 26.675 0 40.32l95.949 100.045-95.923 100.045c-12.314 13.67-11.417 29.209 0 40.345s30.669 10.445 41.344 0z" />
<glyph unicode="&#xe64b;" d="M317.414 142.899c6.861-6.938 6.861-18.151 0-25.063-6.861-6.938-17.945-6.938-24.807 0l-98.048 100.019c-6.861 6.938-6.861 18.151 0 25.063l98.048 100.045c6.861 6.938 17.945 6.938 24.807 0s6.861-18.125 0-25.063l-80.384-87.501 80.384-87.501z" />
<glyph unicode="&#xe64c;" d="M343.501 291.815c6.938 6.861 18.151 6.861 25.063 0 6.938-6.861 6.938-17.945 0-24.806l-100.019-98.048c-6.938-6.861-18.15-6.861-25.063 0l-100.045 98.048c-6.912 6.861-6.912 17.945 0 24.806 6.938 6.861 18.125 6.861 25.063 0l87.501-80.384 87.501 80.384z" />
<glyph unicode="&#xe64d;" d="M168.474 168.986c-6.938-6.861-18.125-6.861-25.063 0-6.912 6.861-6.938 17.945 0 24.832l100.045 97.997c6.938 6.861 18.151 6.861 25.063 0l100.045-98.023c6.938-6.887 6.938-17.971 0-24.832s-18.125-6.861-25.063 0l-87.526 80.41-87.501-80.384z" />
<glyph unicode="&#xe64e;" d="M194.585 142.899c-6.861-6.938-6.861-18.151 0-25.063 6.835-6.938 17.946-6.938 24.806 0l98.048 100.019c6.861 6.938 6.861 18.151 0 25.063l-98.048 100.045c-6.861 6.938-17.946 6.938-24.806 0s-6.861-18.125-0.025-25.037l80.409-87.527-80.384-87.501z" />
<glyph unicode="&#xe64f;" d="M368.615 40.499c6.861-6.938 6.861-18.125 0-25.063s-17.945-6.938-24.807 0l-200.448 202.419c-6.861 6.938-6.861 18.151 0 25.063l200.448 202.445c6.861 6.938 17.945 6.938 24.807 0s6.861-18.125 0-25.063l-182.784-189.901 182.784-189.901z" />
<glyph unicode="&#xe650;" d="M66.099 343.014c-6.938 6.861-18.151 6.861-25.063 0-6.912-6.835-6.912-17.946 0-24.807l202.445-200.448c6.938-6.861 18.125-6.861 25.063 0l202.445 200.448c6.912 6.861 6.938 17.945 0 24.806s-18.176 6.861-25.063 0.026l-189.927-182.81-189.901 182.784z" />
<glyph unicode="&#xe651;" d="M445.901 117.785c6.938-6.861 18.151-6.861 25.063 0 6.938 6.861 6.938 17.945 0 24.807l-202.445 200.448c-6.912 6.861-18.125 6.861-25.037 0l-202.445-200.448c-6.912-6.861-6.938-17.945 0-24.807s18.125-6.861 25.063 0l189.901 182.81 189.901-182.81z" />
<glyph unicode="&#xe652;" d="M143.352 40.499c-6.861-6.938-6.861-18.125 0-25.063s17.946-6.938 24.806 0l200.448 202.419c6.861 6.938 6.861 18.151 0 25.063l-200.448 202.445c-6.861 6.938-17.946 6.938-24.806 0s-6.861-18.125 0-25.063l182.784-189.901-182.784-189.901z" />
</font></defs></svg>